\relax 
\providecommand\hyper@newdestlabel[2]{}
\providecommand\HyperFirstAtBeginDocument{\AtBeginDocument}
\HyperFirstAtBeginDocument{\ifx\hyper@anchor\@undefined
\global\let\oldcontentsline\contentsline
\gdef\contentsline#1#2#3#4{\oldcontentsline{#1}{#2}{#3}}
\global\let\oldnewlabel\newlabel
\gdef\newlabel#1#2{\newlabelxx{#1}#2}
\gdef\newlabelxx#1#2#3#4#5#6{\oldnewlabel{#1}{{#2}{#3}}}
\AtEndDocument{\ifx\hyper@anchor\@undefined
\let\contentsline\oldcontentsline
\let\newlabel\oldnewlabel
\fi}
\fi}
\global\let\hyper@last\relax 
\gdef\HyperFirstAtBeginDocument#1{#1}
\providecommand\HyField@AuxAddToFields[1]{}
\providecommand\HyField@AuxAddToCoFields[2]{}
\bibstyle{ieeetr}
\@writefile{toc}{\contentsline {section}{\numberline {1}ABSTRACT OF PROPOSAL}{2}{section.1}}
\newlabel{sec-1}{{1}{2}{ABSTRACT OF PROPOSAL}{section.1}{}}
\citation{siegel2003cytostatic}
\citation{zavadil2005tgf}
\citation{siegel2003cytostatic}
\@writefile{toc}{\contentsline {section}{\numberline {2}DETAILS OF RESEARCH PROPOSAL}{4}{section.2}}
\newlabel{sec-2}{{2}{4}{DETAILS OF RESEARCH PROPOSAL}{section.2}{}}
\@writefile{toc}{\contentsline {subsection}{\numberline {2.1}SPECIFIC AIMS}{4}{subsection.2.1}}
\newlabel{sec-2-1}{{2.1}{4}{SPECIFIC AIMS}{subsection.2.1}{}}
\@writefile{lof}{\contentsline {figure}{\numberline {1}{\ignorespaces \relax $\@@underline {\hbox {Overview of the canonical TGF-$\beta $ signaling pathway.}}\mathsurround \z@ $\relax  (1) Signaling is initiated by the binding of a TGF-$\beta $ ligand to the receptor. (2) Receptor dimerization and cross-phosphorylation occurs, which then leads to the phosphorylation of an rSmad (3). The rSmad then complexes with Smad4 (4), and the rSmad-Smad4 complex translocates into the nucleus (5) where it serves as a transcription factor to promote expression of target genes (6).}}{4}{figure.1}}
\newlabel{fig:pathway}{{1}{4}{\underline {Overview of the canonical TGF-$\beta $ signaling pathway.} (1) Signaling is initiated by the binding of a TGF-$\beta $ ligand to the receptor. (2) Receptor dimerization and cross-phosphorylation occurs, which then leads to the phosphorylation of an rSmad (3). The rSmad then complexes with Smad4 (4), and the rSmad-Smad4 complex translocates into the nucleus (5) where it serves as a transcription factor to promote expression of target genes (6)}{figure.1}{}}
\citation{clarke2009transforming}
\citation{zhang2014tgf,gal2008sustained}
\citation{nicolas2003attenuation}
\@writefile{lof}{\contentsline {figure}{\numberline {2}{\ignorespaces Optogenetic system designed for manipulation of TGF-$\beta $ signaling. \emph  {A.}\relax $\@@underline {\hbox {Optogenetic components.}}\mathsurround \z@ $\relax  The plant protein PhyB binds to PCB to form a photo-sensitive holoenzyme. Upon exposure to 650nm light, the holoenzyme undergoes a conformational change that allows it to bind to PIF. The binding of PhyB to PIF can be rapidly reversed upon exposure to 750nm light. \emph  {B.}\relax $\@@underline {\hbox {Molecular constructs.}}\mathsurround \z@ $\relax  The cytoplasmic domain of TGF-$\beta $ receptor I (residues 155-503) is fused mCherry, PhyB and the KrasBCT domain, which anchors the construct to the membrane. The entire construct is placed under the control of a CMV promoter, and cloned into the pcDNA3.1A expression vector. On the other hand, the cytoplasmic domain of TGF-$\beta $ receptor II (residues 193-567) is fused to YFP and PIF6APB, and placed under the control of an SV40 promoter. Similarly, the construct is cloned into the pcDNA3.1 vector for expression.}}{6}{figure.2}}
\newlabel{fig:optogenetics}{{2}{6}{Optogenetic system designed for manipulation of TGF-$\beta $ signaling. \emph {A.}\underline {Optogenetic components.} The plant protein PhyB binds to PCB to form a photo-sensitive holoenzyme. Upon exposure to 650nm light, the holoenzyme undergoes a conformational change that allows it to bind to PIF. The binding of PhyB to PIF can be rapidly reversed upon exposure to 750nm light. \emph {B.}\underline {Molecular constructs.} The cytoplasmic domain of TGF-$\beta $ receptor I (residues 155-503) is fused mCherry, PhyB and the KrasBCT domain, which anchors the construct to the membrane. The entire construct is placed under the control of a CMV promoter, and cloned into the pcDNA3.1A expression vector. On the other hand, the cytoplasmic domain of TGF-$\beta $ receptor II (residues 193-567) is fused to YFP and PIF6APB, and placed under the control of an SV40 promoter. Similarly, the construct is cloned into the pcDNA3.1 vector for expression}{figure.2}{}}
\@writefile{toc}{\contentsline {subsection}{\numberline {2.2}SIGNIFICANCE}{6}{subsection.2.2}}
\newlabel{sec-2-2}{{2.2}{6}{SIGNIFICANCE}{subsection.2.2}{}}
\citation{toettcher2013using}
\citation{grusch2014spatio}
\citation{stockwell1998probing}
\@writefile{toc}{\contentsline {subsection}{\numberline {2.3}APPROACH}{7}{subsection.2.3}}
\newlabel{sec-2-3}{{2.3}{7}{APPROACH}{subsection.2.3}{}}
\citation{muller2013synthesis}
\citation{kato1995human}
\citation{seferos2007nano}
\citation{wang2014self,warmflash2012dynamics,zi2011quantitative}
\citation{wang2014self,zi2011quantitative}
\@writefile{toc}{\contentsline {subsection}{\numberline {2.4}INNOVATION}{9}{subsection.2.4}}
\newlabel{sec-2-4}{{2.4}{9}{INNOVATION}{subsection.2.4}{}}
\@writefile{toc}{\contentsline {subsection}{\numberline {2.5}INVESTIGATOR}{9}{subsection.2.5}}
\newlabel{sec-2-5}{{2.5}{9}{INVESTIGATOR}{subsection.2.5}{}}
\bibdata{AcRF_T1}
\bibcite{siegel2003cytostatic}{{1}{}{{}}{{}}}
\bibcite{zavadil2005tgf}{{2}{}{{}}{{}}}
\bibcite{clarke2009transforming}{{3}{}{{}}{{}}}
\bibcite{zhang2014tgf}{{4}{}{{}}{{}}}
\@writefile{toc}{\contentsline {subsection}{\numberline {2.6}ENVIRONMENT}{10}{subsection.2.6}}
\newlabel{sec-2-6}{{2.6}{10}{ENVIRONMENT}{subsection.2.6}{}}
\@writefile{toc}{\contentsline {subsection}{\numberline {2.7}PRELIMINARY STUDIES}{10}{subsection.2.7}}
\newlabel{sec-2-7}{{2.7}{10}{PRELIMINARY STUDIES}{subsection.2.7}{}}
\bibcite{gal2008sustained}{{5}{}{{}}{{}}}
\bibcite{nicolas2003attenuation}{{6}{}{{}}{{}}}
\bibcite{toettcher2013using}{{7}{}{{}}{{}}}
\bibcite{grusch2014spatio}{{8}{}{{}}{{}}}
\bibcite{stockwell1998probing}{{9}{}{{}}{{}}}
\bibcite{muller2013synthesis}{{10}{}{{}}{{}}}
\bibcite{kato1995human}{{11}{}{{}}{{}}}
\bibcite{seferos2007nano}{{12}{}{{}}{{}}}
\bibcite{wang2014self}{{13}{}{{}}{{}}}
\bibcite{warmflash2012dynamics}{{14}{}{{}}{{}}}
\bibcite{zi2011quantitative}{{15}{}{{}}{{}}}
\providecommand\NAT@force@numbers{}\NAT@force@numbers
